<?xml version="1.0" standalone="no"?>
<!DOCTYPE svg PUBLIC "-//W3C//DTD SVG 20010904//EN"
 "http://www.w3.org/TR/2001/REC-SVG-20010904/DTD/svg10.dtd">
<svg version="1.0" xmlns="http://www.w3.org/2000/svg"
 width="1240.000000pt" height="1240.000000pt" viewBox="0 0 1240.000000 1240.000000"
 preserveAspectRatio="xMidYMid meet">
<metadata>
Created by potrace 1.11, written by Peter Selinger 2001-2013
</metadata>
<g transform="translate(0.000000,1240.000000) scale(0.100000,-0.100000)"
fill="#000000" stroke="none">
<path d="M5785 9879 c-313 -63 -553 -243 -698 -521 -45 -85 -83 -191 -93 -256
-3 -20 -10 -57 -14 -82 -9 -47 -6 -277 4 -320 24 -109 40 -167 49 -177 5 -7 7
-13 4 -13 -10 0 74 -163 115 -225 76 -115 222 -241 353 -307 97 -49 177 -77
260 -94 22 -4 47 -9 55 -11 34 -9 251 -9 320 -1 231 28 414 115 588 282 l62
60 -132 135 c-73 75 -136 137 -141 139 -4 2 -29 -14 -55 -35 -173 -142 -307
-194 -482 -187 -81 3 -101 7 -173 33 -101 35 -208 118 -268 207 -36 53 -79
153 -95 221 -22 93 -14 285 15 366 74 209 228 352 421 392 69 14 190 12 265
-5 74 -16 201 -82 279 -145 38 -30 72 -55 75 -55 4 0 47 48 98 108 50 59 110
127 132 152 22 25 41 48 41 51 0 10 -51 58 -111 104 -112 87 -247 147 -409
182 -112 24 -352 25 -465 2z"/>
<path d="M7926 9888 c-362 -49 -687 -304 -813 -638 -14 -36 -26 -72 -28 -80
-2 -8 -8 -34 -14 -56 -42 -157 -30 -408 27 -574 52 -150 164 -317 280 -418
122 -105 303 -199 442 -229 141 -30 315 -37 445 -18 260 38 518 193 675 405
72 98 147 254 165 345 72 349 10 645 -186 891 -152 191 -361 313 -634 370 -47
9 -294 11 -359 2z m285 -402 c165 -35 322 -157 399 -310 160 -318 38 -713
-265 -855 -84 -40 -156 -55 -260 -54 -271 2 -492 179 -566 451 -27 102 -21
272 15 375 88 260 304 411 571 401 44 -1 92 -5 106 -8z"/>
<path d="M1222 9852 c-10 -26 -7 -374 3 -380 6 -4 138 -7 295 -8 157 -1 287
-2 290 -3 3 0 5 -352 5 -781 l0 -780 25 -1 c32 -1 381 -1 398 0 9 1 12 164 12
781 0 617 3 780 13 781 6 1 140 2 297 3 l285 1 0 200 0 200 -809 0 c-666 0
-809 -2 -814 -13z"/>
<path d="M3179 9835 c-1 -37 -1 -1881 0 -1915 l1 -25 738 1 c406 0 743 3 748
7 7 4 12 348 5 377 0 3 -238 5 -527 5 -289 0 -527 3 -530 6 -3 6 -6 174 -5
319 l1 85 460 0 460 0 1 35 c3 142 0 342 -5 347 -3 4 -209 6 -456 6 -248 0
-453 3 -455 7 -4 6 -7 213 -6 331 l1 56 508 1 c279 0 515 1 525 1 16 1 17 17
17 194 l0 192 -740 0 -740 0 -1 -30z"/>
<path d="M9522 9856 c-10 -17 -8 -1956 3 -1957 6 0 103 -1 218 -2 l207 -2 1
25 c0 14 1 191 2 395 l2 370 393 0 c340 0 393 -2 396 -15 3 -8 4 -185 3 -393
l-2 -377 25 -1 c107 -4 402 -1 407 4 8 9 7 1946 -1 1955 -4 4 -102 7 -217 7
-180 0 -209 -2 -210 -15 0 -8 -1 -183 -1 -387 l-1 -373 -81 -1 c-44 0 -223 0
-396 0 l-315 -1 -2 369 c-1 202 -2 377 -2 388 -1 20 -7 20 -212 20 -118 0
-213 -4 -217 -9z"/>
<path d="M7715 7472 c-126 -8 -218 -24 -320 -58 -361 -119 -613 -378 -690
-709 -25 -111 -57 -100 288 -99 166 1 305 2 310 3 4 0 7 9 7 19 0 10 7 27 15
38 8 10 15 27 15 37 0 9 5 17 10 17 6 0 10 5 10 10 0 18 71 88 121 121 79 51
152 73 270 84 52 5 153 -16 226 -46 119 -50 204 -141 246 -264 60 -174 -37
-376 -226 -468 -39 -20 -94 -40 -120 -44 l-49 -8 -160 -265 c-89 -146 -170
-280 -181 -297 l-19 -33 191 0 c225 0 185 3 273 -21 226 -63 381 -214 428
-418 16 -70 7 -192 -20 -260 -61 -156 -209 -286 -384 -338 -142 -42 -344 -26
-474 38 -80 39 -91 48 -169 128 -68 69 -115 152 -134 236 l-12 54 -339 0 -339
-1 6 -46 c23 -199 77 -341 191 -502 136 -193 311 -326 584 -444 162 -69 441
-104 663 -82 305 31 625 187 830 405 l49 51 61 -53 c34 -29 78 -64 97 -79 63
-46 213 -127 223 -121 6 3 7 2 4 -4 -10 -16 161 -81 278 -107 171 -37 344 -41
515 -11 39 6 177 42 200 52 8 3 21 7 28 9 36 7 215 103 297 159 458 310 741
889 738 1506 -1 265 -41 483 -132 715 -100 256 -210 426 -395 609 -202 200
-450 339 -696 388 -170 35 -323 38 -495 11 -60 -10 -211 -53 -260 -75 -27 -12
-52 -23 -55 -24 -3 0 -32 -15 -66 -32 -103 -53 -235 -147 -324 -231 l-86 -80
-39 61 c-53 82 -183 211 -273 270 -205 136 -486 214 -717 199z m2196 -777
c225 -59 420 -242 541 -510 51 -113 77 -203 97 -332 21 -134 19 -313 -4 -428
-10 -44 -19 -91 -22 -104 -14 -79 -122 -311 -169 -366 -13 -16 -24 -32 -24
-36 0 -21 -183 -188 -248 -226 -109 -65 -179 -85 -304 -88 -149 -4 -263 29
-387 113 -177 120 -339 369 -400 610 -31 122 -33 139 -36 297 -5 230 32 409
122 589 86 171 192 295 333 391 152 102 330 134 501 90z"/>
<path d="M2155 7383 c-383 -45 -688 -245 -834 -548 -85 -175 -126 -347 -137
-576 l-7 -128 352 0 351 1 1 26 c0 15 2 45 4 67 2 22 6 69 9 105 7 77 38 196
67 252 46 90 157 185 257 220 261 92 557 -84 613 -364 24 -123 5 -300 -41
-389 -33 -62 -146 -185 -259 -279 -29 -25 -58 -50 -65 -55 -32 -29 -232 -191
-247 -200 -25 -15 -224 -160 -335 -245 -438 -335 -679 -697 -718 -1080 -6 -54
-12 -117 -21 -217 -3 -35 -1 -52 8 -55 21 -7 3919 -1 4002 6 263 23 482 113
693 283 277 225 486 568 578 949 64 265 69 629 13 879 -121 537 -412 941 -839
1167 -195 103 -402 150 -635 143 -143 -4 -164 -7 -277 -36 -509 -128 -920
-558 -1088 -1139 -12 -41 -24 -85 -27 -99 -2 -14 -10 -54 -18 -91 -43 -204
-39 -530 9 -765 41 -200 143 -454 246 -614 l40 -61 -28 -1 c-157 -4 -1734 0
-1739 4 -8 8 56 86 137 167 76 76 218 183 495 375 343 237 493 369 605 531
149 216 211 429 204 704 -7 311 -111 562 -312 757 -245 238 -645 353 -1057
306z m3015 -738 c358 -110 622 -536 624 -1005 0 -143 -4 -194 -25 -275 -32
-130 -54 -196 -89 -272 -104 -223 -246 -375 -445 -473 -78 -39 -93 -42 -171
-44 -277 -7 -480 102 -655 352 -77 111 -161 304 -185 425 -72 375 12 756 225
1017 126 155 267 250 422 285 79 18 223 13 299 -10z"/>
<path d="M2400 3290 c-57 -10 -103 -38 -130 -77 -20 -30 -25 -49 -25 -103 0
-58 4 -72 28 -103 15 -21 42 -44 60 -54 48 -25 127 -25 176 -1 44 21 46 25 31
48 -7 12 -12 11 -30 -5 -17 -16 -37 -20 -85 -20 -54 0 -67 4 -90 25 -42 39
-58 78 -52 127 6 53 28 88 69 109 54 28 136 23 159 -10 10 -13 42 1 37 16 -4
12 -68 52 -68 43 0 -2 -10 -1 -22 3 -13 5 -39 6 -58 2z"/>
<path d="M6296 3285 c-43 -12 -102 -64 -117 -101 -19 -51 -11 -127 18 -172 57
-88 213 -109 273 -37 22 27 -8 38 -40 15 -66 -47 -182 -12 -211 64 -49 130 74
242 202 185 26 -12 46 -16 52 -10 34 34 -101 77 -177 56z"/>
<path d="M8728 3283 c-106 -31 -156 -145 -109 -250 48 -106 199 -134 293 -55
74 62 78 190 9 262 -42 44 -126 63 -193 43z m131 -47 c93 -49 94 -197 0 -248
-48 -27 -130 -20 -165 13 -53 50 -67 108 -40 173 31 75 124 103 205 62z"/>
<path d="M1205 3118 c0 -134 3 -175 13 -181 21 -14 25 -3 25 81 l-1 79 111 -1
110 -1 1 -79 c1 -67 4 -79 19 -82 16 -2 17 12 17 177 0 170 -1 179 -19 179
-17 0 -20 -7 -19 -52 0 -29 0 -65 -1 -80 l-1 -27 -109 2 -110 1 1 65 c0 90 0
91 -20 91 -16 0 -18 -14 -17 -172z"/>
<path d="M1834 3213 c-60 -129 -124 -273 -124 -277 0 -3 9 -4 20 -3 13 1 26
17 40 49 l21 48 97 0 97 0 22 -50 c17 -35 28 -48 42 -47 22 1 22 2 -34 122
-20 44 -53 115 -72 158 -26 56 -41 77 -55 77 -14 0 -28 -21 -54 -77z m79 -20
c9 -21 25 -59 36 -84 l19 -47 -76 2 c-66 1 -77 3 -74 18 4 27 62 148 70 148 5
0 16 -17 25 -37z"/>
<path d="M2784 3113 c1 -167 2 -178 20 -178 17 0 18 10 18 160 0 208 1 195
-21 195 -18 0 -19 -9 -17 -177z"/>
<path d="M3161 3223 c-112 -239 -128 -278 -117 -285 21 -14 27 -8 48 42 l21
50 97 0 97 0 23 -49 c16 -35 28 -49 41 -48 11 1 19 2 19 3 0 5 -40 94 -84 187
-26 55 -53 114 -61 133 -23 55 -47 46 -84 -33z m85 -60 c15 -38 31 -72 36 -77
17 -21 6 -24 -72 -23 -44 0 -80 2 -80 4 0 1 16 37 35 79 19 41 35 80 35 85 0
24 20 -6 46 -68z"/>
<path d="M3879 3273 c-1 -10 -1 -66 -1 -124 1 -169 32 -214 147 -214 44 0 67
5 87 20 48 36 58 73 58 210 0 118 -1 125 -20 125 -19 0 -20 -7 -20 -115 0
-167 -20 -205 -110 -205 -33 0 -48 6 -71 29 -16 16 -29 40 -30 53 0 13 -1 71
-1 131 -1 97 -3 107 -20 107 -10 0 -18 -8 -19 -17z"/>
<path d="M4430 3112 c0 -170 1 -178 20 -179 18 -2 20 6 22 139 l3 140 110
-139 c61 -76 117 -138 125 -138 13 0 15 27 17 178 2 169 1 177 -18 177 -22 0
-21 4 -20 -157 0 -62 -3 -113 -7 -113 -4 0 -54 61 -112 135 -62 79 -112 134
-122 135 -17 0 -18 -15 -18 -178z"/>
<path d="M5220 3272 c0 -16 8 -18 60 -17 l60 1 0 -162 c0 -149 1 -162 18 -160
15 3 18 20 22 162 l5 159 50 1 c72 2 75 2 75 19 0 13 -23 15 -145 15 -133 0
-145 -1 -145 -18z"/>
<path d="M5711 3115 c0 -131 3 -175 12 -176 59 -7 233 -2 239 6 16 22 4 25
-101 25 l-109 0 1 63 2 62 55 2 c30 0 71 1 91 2 25 1 36 6 36 16 0 12 -17 15
-92 15 l-92 0 -1 60 c0 38 4 60 11 61 7 1 52 2 102 3 77 1 90 3 93 19 3 15 -8
17 -121 17 l-125 0 -1 -175z"/>
<path d="M6778 3277 c-134 -60 -141 -261 -11 -322 133 -64 274 15 276 154 1
104 -77 182 -182 180 -31 0 -68 -6 -83 -12z m124 -26 c10 0 32 -14 51 -30 101
-89 41 -251 -94 -251 -110 0 -176 102 -131 203 23 52 75 86 126 82 17 -2 39
-3 48 -4z"/>
<path d="M7275 3121 c0 -116 4 -174 12 -182 21 -21 29 0 28 76 -2 88 -9 84
127 83 l87 0 3 -81 c3 -67 6 -81 21 -83 19 -2 18 -8 18 241 1 105 0 110 -21
113 -19 3 -21 -1 -20 -35 1 -21 2 -57 1 -80 l-1 -42 -107 2 -108 2 0 78 c0 71
-1 77 -20 77 -20 0 -20 -6 -20 -169z"/>
<path d="M8122 3113 c3 -150 5 -178 18 -178 11 0 15 12 16 40 1 22 2 47 3 56
1 12 12 15 54 14 125 -4 188 42 182 133 -5 80 -59 112 -190 112 l-85 0 2 -177z
m166 138 c37 -2 71 -46 67 -88 -5 -57 -31 -75 -119 -81 -86 -5 -78 -14 -78 90
-1 81 2 85 59 82 26 -1 58 -2 71 -3z"/>
<path d="M9228 3274 c-34 -18 -48 -43 -48 -84 0 -40 36 -74 98 -91 81 -22 108
-34 115 -53 9 -23 -12 -64 -36 -72 -37 -12 -98 -5 -137 14 -35 17 -40 17 -45
3 -13 -33 80 -67 154 -57 60 8 88 29 100 72 17 60 -8 90 -94 116 -90 26 -115
42 -115 73 0 39 42 64 101 61 28 -2 55 -8 62 -15 15 -15 24 -14 31 4 14 38
-128 61 -186 29z"/>
<path d="M9665 3116 c0 -96 3 -177 6 -181 4 -3 12 -3 20 0 12 4 14 39 14 180
0 170 0 175 -20 175 -20 0 -21 -5 -20 -174z"/>
<path d="M9969 3273 c0 -23 0 -314 0 -329 1 -16 211 -10 247 7 54 26 62 118
13 153 -20 13 -20 14 1 49 19 31 20 41 11 70 -17 50 -61 67 -176 67 -84 0 -95
-2 -96 -17z m209 -31 c12 -7 23 -18 23 -25 6 -66 -22 -87 -117 -87 l-74 0 0
63 0 63 73 -1 c39 -1 82 -7 95 -13z m26 -161 c23 -19 25 -59 5 -86 -17 -21
-28 -24 -109 -27 l-90 -3 0 67 0 68 90 -4 c49 -2 96 -9 104 -15z"/>
<path d="M10499 3275 c0 -8 0 -76 0 -150 0 -74 0 -147 0 -163 l1 -27 113 0
c103 -1 126 4 127 28 0 4 -45 7 -100 7 l-100 0 -1 33 c-1 17 -1 89 -1 160 0
118 -1 127 -19 127 -10 0 -19 -7 -20 -15z"/>
<path d="M10946 3118 c1 -95 2 -175 3 -178 0 -3 56 -6 123 -5 108 0 123 2 126
18 3 15 -7 17 -101 17 -75 0 -106 4 -109 13 -2 6 -4 35 -4 62 l1 50 75 2 c111
2 110 2 110 18 0 16 0 16 -107 17 -44 0 -73 5 -76 12 -3 9 -2 87 2 106 1 3 46
6 101 5 90 -1 100 1 100 17 0 16 -11 18 -123 18 l-123 0 2 -172z"/>
</g>
</svg>
